{

	"Czech": {
		"top": [["nahoře"], ["top"]],
		"bottom": [["dole"], ["bottom"]],
		"left": [["vlevo"], ["left"]],
		"right": [["vpravo"], ["right"]],
		"middle": [["uprostřed"], ["middle"]],
		"see": [["vidím"], ["I see"]],
		"nothing": [["Nic nevidím. Ukaž mi něco!"], ["I don't recognize any objects"]]
		
	}

}
